{
  "css": ["./static/tailwind.css",
        "./plugins/chalkboard/style.css", 
        "./static/chalmers.css", 
        "./plugins/menu/menu.css",
        "./plugins/menu/font-awesome/css/all.css"],
  "scripts": [
    "./plugins/chalkboard/plugin.js",
    "./plugins/menu/menu.js",
    "./plugins.js"
  ]
}
